866896 920714 476
744409 968886 525
983309 766282 525
434510 571830 470
968364 183515 525
324506 493988 449
226521 302946 443
723606 844246 525
882288 442342 525
182367 606351 470
502792 586868 470
757773 134631 509
617418 97644 470
251976 766959 509
437769 5639 449
725570 587070 509
328470 542472 470
557427 915887 525
13974 880204 525
151732 567060 470
982634 771025 525
988898 152246 525
919090 214923 525
814594 69283 509
517290 115560 470
566172 568329 359
24274 708170 509
541517 544204 359
65982 631883 509
66362 573710 470
619854 369472 470
725010 901156 525
16376 842455 525
773653 936581 525
943714 899415 507
865335 336660 525
614077 301423 470
212264 464733 449
610470 323030 470
796420 874873 525
459763 990716 525
818677 996404 525
491870 972196 525
364296 285348 441
658011 809990 504
8087 1055 262
729384 99722 509
60345 460115 449
9233 274112 443
991251 146463 525
646575 199006 509
424140 279759 449
559177 835848 509
960674 209248 525
30710 288712 443
105919 252798 443
558110 368760 470
180525 848750 525
618258 104076 470
257154 346947 441
904731 68140 525
31818 444027 449
519277 58594 470
641058 856126 525
151054 706808 509
215257 727931 509
410653 860153 525
784658 298940 509
124491 624925 470
420367 515858 470
300010 361337 441
564522 192390 470
444244 846742 525
175400 574336 470
269776 93222 443
66872 699355 509
918286 884484 476
365151 746608 509
462856 871655 525
933047 623580 525
621941 407006 470
880575 685157 525
78672 399177 443
391902 927711 525
189104 298084 443
64379 163581 383
336762 433975 449
464755 720235 509
883903 354875 525
812771 378622 509
269982 520240 470
200810 243791 443
410461 117188 449
446710 331603 449
331176 542065 470
512528 259220 470
179406 742855 509
671542 630933 442
841777 470515 525
39261 81880 351
378703 576898 470
753011 448646 509
948012 815348 525
58409 589747 470
454307 284717 449
907507 700624 525
100687 919957 525
342870 992682 525
44131 596715 470
544284 114816 470
652123 653046 354
758455 144125 509
749017 190819 509
671117 439733 509
338356 80084 443
888828 623868 525
884265 440639 525
327334 986427 525
899301 871123 445
921573 605982 525
873733 647484 525
67868 81856 351
649692 943925 525
556946 402798 470
993469 599756 525
817944 559348 509
921737 218627 525
776315 220791 509
822183 100404 509
900837 207820 525
548909 916427 525
773089 486371 509
232307 786916 509
779099 972565 525
328749 281659 389
886140 430898 525
191571 933350 525
977378 787244 525
847692 553073 525
328516 926451 525
196789 531248 470
987926 281798 525
611058 883890 525
79419 173725 383
655588 883089 525
411617 560168 470
920337 61182 525
649409 29749 509
349163 987093 525
251073 136986 443
116845 792804 509
398780 850972 525
698033 771726 504
377551 68493 443
181983 657526 509
560103 736312 509
396728 236385 441
90430 816852 509
638565 633745 416
738433 903846 525
246818 361479 441
845543 494873 525
356285 999075 525
253979 105721 443
766545 51544 509
414103 3814 449
256041 321384 407
772782 597472 509
570511 68637 470
920174 252493 525
305150 346860 441
96324 560605 470
965439 848966 507
167832 38393 383
872926 191028 525
688874 340128 509
624679 268125 470
475488 904900 525
122450 598086 470
246148 709784 509
837411 778091 468
463808 934966 525
284366 624534 470
140079 309354 443
339446 290934 384
420763 137736 449
596504 872292 525
934106 484572 525
405030 21416 443
194373 743916 509
952875 89240 525
819430 642824 504
783757 189182 509
664218 186610 509
333580 353388 441
161727 234700 443
977192 887637 507
663525 8568 509
579357 645675 509
862151 264103 525
